dataset_number/i:crossSection/D:kFactor/D:genFiltEff/D
361106  1.9011E+00  1.02600047339  1.0000E+00  
361100  1.1306E+01  1.01723999646  1.0         
361103  8.2831E+00  1.03577349174  1.0000E+00  
410471  7.2977E-01  1.13974074379  4.5623E-01  
410470  7.2976E-01  1.13975636159  5.4385E-01  
364250  1.2523E-03  1.0            1.0000E+00  
364253  4.5790E-03  1.0            1.0000E+00  
364254  1.2502E-02  1.0            1.0         
363360  2.4721E-02  1.0            1.0000E+00  
363359  2.4703E-02  1.0            1.0000E+00  
363489  1.1420E-02  1.0            1.0000E+00  
363358  3.4320E-03  1.0            1.0000E+00  
363356  1.5564E-02  1.0            1.4158E-01  
410644  0.002027    1.0170         1.0000E+00  
410645  1.2674E-03  1.0167         1.0000E+00  
410646  3.7936E-02  0.9450         1.0000E+00  
410647  3.7905E-02  0.9457         1.0000E+00  
410658  3.6996E-02  1.1935         1.0000E+00  
410659  2.2175E-02  1.1849         1.0000E+00  
361108  1.9011E+00  1.02605444217  1.0000E+00  

#lsetup  "asetup AthAnalysis,21.2.70" pyAMI
#getMetadata.py --timestamp="2019-06-18 13:44:37" --physicsGroups="PMG,MCGN" --fields="dataset_number,crossSection,kFactor,genFiltEff" --inDS="mc16_13TeV.361106.PowhegPythia8EvtGen_AZNLOCTEQ6L1_Zee.merge.AOD.e3601_e5984_s3126_r10724_r10726,mc16_13TeV.361100.PowhegPythia8EvtGen_AZNLOCTEQ6L1_Wplusenu.merge.AOD.e3601_e5984_s3126_r10724_r10726,mc16_13TeV.361103.PowhegPythia8EvtGen_AZNLOCTEQ6L1_Wminusenu.merge.AOD.e3601_e5984_s3126_r10724_r10726,mc16_13TeV.410471.PhPy8EG_A14_ttbar_hdamp258p75_allhad.merge.AOD.e6337_e5984_s3126_r10724_r10726,mc16_13TeV.410470.PhPy8EG_A14_ttbar_hdamp258p75_nonallhad.merge.AOD.e6337_e5984_s3126_r10724_r10726,mc16_13TeV.364250.Sherpa_222_NNPDF30NNLO_llll.merge.AOD.e5894_e5984_s3126_r10724_r10726,mc16_13TeV.364253.Sherpa_222_NNPDF30NNLO_lllv.merge.AOD.e5916_e5984_s3126_r10724_r10726,mc16_13TeV.364254.Sherpa_222_NNPDF30NNLO_llvv.merge.AOD.e5916_e5984_s3126_r10724_r10726,mc16_13TeV.363360.Sherpa_221_NNPDF30NNLO_WplvWmqq.merge.AOD.e5983_e5984_s3126_r10724_r10726,mc16_13TeV.363359.Sherpa_221_NNPDF30NNLO_WpqqWmlv.merge.AOD.e5583_e5984_s3126_r10724_r10726,mc16_13TeV.363489.Sherpa_221_NNPDF30NNLO_WlvZqq.merge.AOD.e5525_e5984_s3126_r10724_r10726,mc16_13TeV.363358.Sherpa_221_NNPDF30NNLO_WqqZll.merge.AOD.e5525_e5984_s3126_r10724_r10726,mc16_13TeV.363356.Sherpa_221_NNPDF30NNLO_ZqqZll.merge.AOD.e5525_e5984_s3126_r10724_r10726,mc16_13TeV.410644.PowhegPythia8EvtGen_A14_singletop_schan_lept_top.merge.AOD.e6527_e5984_s3126_r10724_r10726,mc16_13TeV.410645.PowhegPythia8EvtGen_A14_singletop_schan_lept_antitop.merge.AOD.e6527_e5984_s3126_r10724_r10726,mc16_13TeV.410646.PowhegPythia8EvtGen_A14_Wt_DR_inclusive_top.merge.AOD.e6552_e5984_s3126_r10724_r10726,mc16_13TeV.410647.PowhegPythia8EvtGen_A14_Wt_DR_inclusive_antitop.merge.AOD.e6552_e5984_s3126_r10724_r10726,mc16_13TeV.410658.PhPy8EG_A14_tchan_BW50_lept_top.merge.AOD.e6671_e5984_s3126_s3136_r10724_r10726,mc16_13TeV.410659.PhPy8EG_A14_tchan_BW50_lept_antitop.merge.AOD.e6671_e5984_s3126_s3136_r10724_r10726,mc16_13TeV.361108.PowhegPythia8EvtGen_AZNLOCTEQ6L1_Ztautau.merge.AOD.e3601_e5984_s3126_s3136_r10724_r10726"
